%!PS-Adobe-2.0 EPSF-2.0
%%Title: ../schedsim/CPU_0.eps
%%Creator: gnuplot 4.6 patchlevel 4
%%CreationDate: Fri Jan  1 19:08:14 2016
%%DocumentFonts: (atend)
%%BoundingBox: 50 50 770 374
%%EndComments
%%BeginProlog
/gnudict 256 dict def
gnudict begin
%
% The following true/false flags may be edited by hand if desired.
% The unit line width and grayscale image gamma correction may also be changed.
%
/Color true def
/Blacktext false def
/Solid true def
/Dashlength 1 def
/Landscape false def
/Level1 false def
/Rounded false def
/ClipToBoundingBox false def
/SuppressPDFMark false def
/TransparentPatterns false def
/gnulinewidth 5.000 def
/userlinewidth gnulinewidth def
/Gamma 1.0 def
/BackgroundColor {-1.000 -1.000 -1.000} def
%
/vshift -46 def
/dl1 {
  10.0 Dashlength mul mul
  Rounded { currentlinewidth 0.75 mul sub dup 0 le { pop 0.01 } if } if
} def
/dl2 {
  10.0 Dashlength mul mul
  Rounded { currentlinewidth 0.75 mul add } if
} def
/hpt_ 31.5 def
/vpt_ 31.5 def
/hpt hpt_ def
/vpt vpt_ def
/doclip {
  ClipToBoundingBox {
    newpath 50 50 moveto 770 50 lineto 770 374 lineto 50 374 lineto closepath
    clip
  } if
} def
%
% Gnuplot Prolog Version 4.6 (September 2012)
%
%/SuppressPDFMark true def
%
/M {moveto} bind def
/L {lineto} bind def
/R {rmoveto} bind def
/V {rlineto} bind def
/N {newpath moveto} bind def
/Z {closepath} bind def
/C {setrgbcolor} bind def
/f {rlineto fill} bind def
/g {setgray} bind def
/Gshow {show} def   % May be redefined later in the file to support UTF-8
/vpt2 vpt 2 mul def
/hpt2 hpt 2 mul def
/Lshow {currentpoint stroke M 0 vshift R 
	Blacktext {gsave 0 setgray show grestore} {show} ifelse} def
/Rshow {currentpoint stroke M dup stringwidth pop neg vshift R
	Blacktext {gsave 0 setgray show grestore} {show} ifelse} def
/Cshow {currentpoint stroke M dup stringwidth pop -2 div vshift R 
	Blacktext {gsave 0 setgray show grestore} {show} ifelse} def
/UP {dup vpt_ mul /vpt exch def hpt_ mul /hpt exch def
  /hpt2 hpt 2 mul def /vpt2 vpt 2 mul def} def
/DL {Color {setrgbcolor Solid {pop []} if 0 setdash}
 {pop pop pop 0 setgray Solid {pop []} if 0 setdash} ifelse} def
/BL {stroke userlinewidth 2 mul setlinewidth
	Rounded {1 setlinejoin 1 setlinecap} if} def
/AL {stroke userlinewidth 2 div setlinewidth
	Rounded {1 setlinejoin 1 setlinecap} if} def
/UL {dup gnulinewidth mul /userlinewidth exch def
	dup 1 lt {pop 1} if 10 mul /udl exch def} def
/PL {stroke userlinewidth setlinewidth
	Rounded {1 setlinejoin 1 setlinecap} if} def
3.8 setmiterlimit
% Default Line colors
/LCw {1 1 1} def
/LCb {0 0 0} def
/LCa {0 0 0} def
/LC0 {1 0 0} def
/LC1 {0 1 0} def
/LC2 {0 0 1} def
/LC3 {1 0 1} def
/LC4 {0 1 1} def
/LC5 {1 1 0} def
/LC6 {0 0 0} def
/LC7 {1 0.3 0} def
/LC8 {0.5 0.5 0.5} def
% Default Line Types
/LTw {PL [] 1 setgray} def
/LTb {BL [] LCb DL} def
/LTa {AL [1 udl mul 2 udl mul] 0 setdash LCa setrgbcolor} def
/LT0 {PL [] LC0 DL} def
/LT1 {PL [4 dl1 2 dl2] LC1 DL} def
/LT2 {PL [2 dl1 3 dl2] LC2 DL} def
/LT3 {PL [1 dl1 1.5 dl2] LC3 DL} def
/LT4 {PL [6 dl1 2 dl2 1 dl1 2 dl2] LC4 DL} def
/LT5 {PL [3 dl1 3 dl2 1 dl1 3 dl2] LC5 DL} def
/LT6 {PL [2 dl1 2 dl2 2 dl1 6 dl2] LC6 DL} def
/LT7 {PL [1 dl1 2 dl2 6 dl1 2 dl2 1 dl1 2 dl2] LC7 DL} def
/LT8 {PL [2 dl1 2 dl2 2 dl1 2 dl2 2 dl1 2 dl2 2 dl1 4 dl2] LC8 DL} def
/Pnt {stroke [] 0 setdash gsave 1 setlinecap M 0 0 V stroke grestore} def
/Dia {stroke [] 0 setdash 2 copy vpt add M
  hpt neg vpt neg V hpt vpt neg V
  hpt vpt V hpt neg vpt V closepath stroke
  Pnt} def
/Pls {stroke [] 0 setdash vpt sub M 0 vpt2 V
  currentpoint stroke M
  hpt neg vpt neg R hpt2 0 V stroke
 } def
/Box {stroke [] 0 setdash 2 copy exch hpt sub exch vpt add M
  0 vpt2 neg V hpt2 0 V 0 vpt2 V
  hpt2 neg 0 V closepath stroke
  Pnt} def
/Crs {stroke [] 0 setdash exch hpt sub exch vpt add M
  hpt2 vpt2 neg V currentpoint stroke M
  hpt2 neg 0 R hpt2 vpt2 V stroke} def
/TriU {stroke [] 0 setdash 2 copy vpt 1.12 mul add M
  hpt neg vpt -1.62 mul V
  hpt 2 mul 0 V
  hpt neg vpt 1.62 mul V closepath stroke
  Pnt} def
/Star {2 copy Pls Crs} def
/BoxF {stroke [] 0 setdash exch hpt sub exch vpt add M
  0 vpt2 neg V hpt2 0 V 0 vpt2 V
  hpt2 neg 0 V closepath fill} def
/TriUF {stroke [] 0 setdash vpt 1.12 mul add M
  hpt neg vpt -1.62 mul V
  hpt 2 mul 0 V
  hpt neg vpt 1.62 mul V closepath fill} def
/TriD {stroke [] 0 setdash 2 copy vpt 1.12 mul sub M
  hpt neg vpt 1.62 mul V
  hpt 2 mul 0 V
  hpt neg vpt -1.62 mul V closepath stroke
  Pnt} def
/TriDF {stroke [] 0 setdash vpt 1.12 mul sub M
  hpt neg vpt 1.62 mul V
  hpt 2 mul 0 V
  hpt neg vpt -1.62 mul V closepath fill} def
/DiaF {stroke [] 0 setdash vpt add M
  hpt neg vpt neg V hpt vpt neg V
  hpt vpt V hpt neg vpt V closepath fill} def
/Pent {stroke [] 0 setdash 2 copy gsave
  translate 0 hpt M 4 {72 rotate 0 hpt L} repeat
  closepath stroke grestore Pnt} def
/PentF {stroke [] 0 setdash gsave
  translate 0 hpt M 4 {72 rotate 0 hpt L} repeat
  closepath fill grestore} def
/Circle {stroke [] 0 setdash 2 copy
  hpt 0 360 arc stroke Pnt} def
/CircleF {stroke [] 0 setdash hpt 0 360 arc fill} def
/C0 {BL [] 0 setdash 2 copy moveto vpt 90 450 arc} bind def
/C1 {BL [] 0 setdash 2 copy moveto
	2 copy vpt 0 90 arc closepath fill
	vpt 0 360 arc closepath} bind def
/C2 {BL [] 0 setdash 2 copy moveto
	2 copy vpt 90 180 arc closepath fill
	vpt 0 360 arc closepath} bind def
/C3 {BL [] 0 setdash 2 copy moveto
	2 copy vpt 0 180 arc closepath fill
	vpt 0 360 arc closepath} bind def
/C4 {BL [] 0 setdash 2 copy moveto
	2 copy vpt 180 270 arc closepath fill
	vpt 0 360 arc closepath} bind def
/C5 {BL [] 0 setdash 2 copy moveto
	2 copy vpt 0 90 arc
	2 copy moveto
	2 copy vpt 180 270 arc closepath fill
	vpt 0 360 arc} bind def
/C6 {BL [] 0 setdash 2 copy moveto
	2 copy vpt 90 270 arc closepath fill
	vpt 0 360 arc closepath} bind def
/C7 {BL [] 0 setdash 2 copy moveto
	2 copy vpt 0 270 arc closepath fill
	vpt 0 360 arc closepath} bind def
/C8 {BL [] 0 setdash 2 copy moveto
	2 copy vpt 270 360 arc closepath fill
	vpt 0 360 arc closepath} bind def
/C9 {BL [] 0 setdash 2 copy moveto
	2 copy vpt 270 450 arc closepath fill
	vpt 0 360 arc closepath} bind def
/C10 {BL [] 0 setdash 2 copy 2 copy moveto vpt 270 360 arc closepath fill
	2 copy moveto
	2 copy vpt 90 180 arc closepath fill
	vpt 0 360 arc closepath} bind def
/C11 {BL [] 0 setdash 2 copy moveto
	2 copy vpt 0 180 arc closepath fill
	2 copy moveto
	2 copy vpt 270 360 arc closepath fill
	vpt 0 360 arc closepath} bind def
/C12 {BL [] 0 setdash 2 copy moveto
	2 copy vpt 180 360 arc closepath fill
	vpt 0 360 arc closepath} bind def
/C13 {BL [] 0 setdash 2 copy moveto
	2 copy vpt 0 90 arc closepath fill
	2 copy moveto
	2 copy vpt 180 360 arc closepath fill
	vpt 0 360 arc closepath} bind def
/C14 {BL [] 0 setdash 2 copy moveto
	2 copy vpt 90 360 arc closepath fill
	vpt 0 360 arc} bind def
/C15 {BL [] 0 setdash 2 copy vpt 0 360 arc closepath fill
	vpt 0 360 arc closepath} bind def
/Rec {newpath 4 2 roll moveto 1 index 0 rlineto 0 exch rlineto
	neg 0 rlineto closepath} bind def
/Square {dup Rec} bind def
/Bsquare {vpt sub exch vpt sub exch vpt2 Square} bind def
/S0 {BL [] 0 setdash 2 copy moveto 0 vpt rlineto BL Bsquare} bind def
/S1 {BL [] 0 setdash 2 copy vpt Square fill Bsquare} bind def
/S2 {BL [] 0 setdash 2 copy exch vpt sub exch vpt Square fill Bsquare} bind def
/S3 {BL [] 0 setdash 2 copy exch vpt sub exch vpt2 vpt Rec fill Bsquare} bind def
/S4 {BL [] 0 setdash 2 copy exch vpt sub exch vpt sub vpt Square fill Bsquare} bind def
/S5 {BL [] 0 setdash 2 copy 2 copy vpt Square fill
	exch vpt sub exch vpt sub vpt Square fill Bsquare} bind def
/S6 {BL [] 0 setdash 2 copy exch vpt sub exch vpt sub vpt vpt2 Rec fill Bsquare} bind def
/S7 {BL [] 0 setdash 2 copy exch vpt sub exch vpt sub vpt vpt2 Rec fill
	2 copy vpt Square fill Bsquare} bind def
/S8 {BL [] 0 setdash 2 copy vpt sub vpt Square fill Bsquare} bind def
/S9 {BL [] 0 setdash 2 copy vpt sub vpt vpt2 Rec fill Bsquare} bind def
/S10 {BL [] 0 setdash 2 copy vpt sub vpt Square fill 2 copy exch vpt sub exch vpt Square fill
	Bsquare} bind def
/S11 {BL [] 0 setdash 2 copy vpt sub vpt Square fill 2 copy exch vpt sub exch vpt2 vpt Rec fill
	Bsquare} bind def
/S12 {BL [] 0 setdash 2 copy exch vpt sub exch vpt sub vpt2 vpt Rec fill Bsquare} bind def
/S13 {BL [] 0 setdash 2 copy exch vpt sub exch vpt sub vpt2 vpt Rec fill
	2 copy vpt Square fill Bsquare} bind def
/S14 {BL [] 0 setdash 2 copy exch vpt sub exch vpt sub vpt2 vpt Rec fill
	2 copy exch vpt sub exch vpt Square fill Bsquare} bind def
/S15 {BL [] 0 setdash 2 copy Bsquare fill Bsquare} bind def
/D0 {gsave translate 45 rotate 0 0 S0 stroke grestore} bind def
/D1 {gsave translate 45 rotate 0 0 S1 stroke grestore} bind def
/D2 {gsave translate 45 rotate 0 0 S2 stroke grestore} bind def
/D3 {gsave translate 45 rotate 0 0 S3 stroke grestore} bind def
/D4 {gsave translate 45 rotate 0 0 S4 stroke grestore} bind def
/D5 {gsave translate 45 rotate 0 0 S5 stroke grestore} bind def
/D6 {gsave translate 45 rotate 0 0 S6 stroke grestore} bind def
/D7 {gsave translate 45 rotate 0 0 S7 stroke grestore} bind def
/D8 {gsave translate 45 rotate 0 0 S8 stroke grestore} bind def
/D9 {gsave translate 45 rotate 0 0 S9 stroke grestore} bind def
/D10 {gsave translate 45 rotate 0 0 S10 stroke grestore} bind def
/D11 {gsave translate 45 rotate 0 0 S11 stroke grestore} bind def
/D12 {gsave translate 45 rotate 0 0 S12 stroke grestore} bind def
/D13 {gsave translate 45 rotate 0 0 S13 stroke grestore} bind def
/D14 {gsave translate 45 rotate 0 0 S14 stroke grestore} bind def
/D15 {gsave translate 45 rotate 0 0 S15 stroke grestore} bind def
/DiaE {stroke [] 0 setdash vpt add M
  hpt neg vpt neg V hpt vpt neg V
  hpt vpt V hpt neg vpt V closepath stroke} def
/BoxE {stroke [] 0 setdash exch hpt sub exch vpt add M
  0 vpt2 neg V hpt2 0 V 0 vpt2 V
  hpt2 neg 0 V closepath stroke} def
/TriUE {stroke [] 0 setdash vpt 1.12 mul add M
  hpt neg vpt -1.62 mul V
  hpt 2 mul 0 V
  hpt neg vpt 1.62 mul V closepath stroke} def
/TriDE {stroke [] 0 setdash vpt 1.12 mul sub M
  hpt neg vpt 1.62 mul V
  hpt 2 mul 0 V
  hpt neg vpt -1.62 mul V closepath stroke} def
/PentE {stroke [] 0 setdash gsave
  translate 0 hpt M 4 {72 rotate 0 hpt L} repeat
  closepath stroke grestore} def
/CircE {stroke [] 0 setdash 
  hpt 0 360 arc stroke} def
/Opaque {gsave closepath 1 setgray fill grestore 0 setgray closepath} def
/DiaW {stroke [] 0 setdash vpt add M
  hpt neg vpt neg V hpt vpt neg V
  hpt vpt V hpt neg vpt V Opaque stroke} def
/BoxW {stroke [] 0 setdash exch hpt sub exch vpt add M
  0 vpt2 neg V hpt2 0 V 0 vpt2 V
  hpt2 neg 0 V Opaque stroke} def
/TriUW {stroke [] 0 setdash vpt 1.12 mul add M
  hpt neg vpt -1.62 mul V
  hpt 2 mul 0 V
  hpt neg vpt 1.62 mul V Opaque stroke} def
/TriDW {stroke [] 0 setdash vpt 1.12 mul sub M
  hpt neg vpt 1.62 mul V
  hpt 2 mul 0 V
  hpt neg vpt -1.62 mul V Opaque stroke} def
/PentW {stroke [] 0 setdash gsave
  translate 0 hpt M 4 {72 rotate 0 hpt L} repeat
  Opaque stroke grestore} def
/CircW {stroke [] 0 setdash 
  hpt 0 360 arc Opaque stroke} def
/BoxFill {gsave Rec 1 setgray fill grestore} def
/Density {
  /Fillden exch def
  currentrgbcolor
  /ColB exch def /ColG exch def /ColR exch def
  /ColR ColR Fillden mul Fillden sub 1 add def
  /ColG ColG Fillden mul Fillden sub 1 add def
  /ColB ColB Fillden mul Fillden sub 1 add def
  ColR ColG ColB setrgbcolor} def
/BoxColFill {gsave Rec PolyFill} def
/PolyFill {gsave Density fill grestore grestore} def
/h {rlineto rlineto rlineto gsave closepath fill grestore} bind def
%
% PostScript Level 1 Pattern Fill routine for rectangles
% Usage: x y w h s a XX PatternFill
%	x,y = lower left corner of box to be filled
%	w,h = width and height of box
%	  a = angle in degrees between lines and x-axis
%	 XX = 0/1 for no/yes cross-hatch
%
/PatternFill {gsave /PFa [ 9 2 roll ] def
  PFa 0 get PFa 2 get 2 div add PFa 1 get PFa 3 get 2 div add translate
  PFa 2 get -2 div PFa 3 get -2 div PFa 2 get PFa 3 get Rec
  TransparentPatterns {} {gsave 1 setgray fill grestore} ifelse
  clip
  currentlinewidth 0.5 mul setlinewidth
  /PFs PFa 2 get dup mul PFa 3 get dup mul add sqrt def
  0 0 M PFa 5 get rotate PFs -2 div dup translate
  0 1 PFs PFa 4 get div 1 add floor cvi
	{PFa 4 get mul 0 M 0 PFs V} for
  0 PFa 6 get ne {
	0 1 PFs PFa 4 get div 1 add floor cvi
	{PFa 4 get mul 0 2 1 roll M PFs 0 V} for
 } if
  stroke grestore} def
%
/languagelevel where
 {pop languagelevel} {1} ifelse
 2 lt
	{/InterpretLevel1 true def}
	{/InterpretLevel1 Level1 def}
 ifelse
%
% PostScript level 2 pattern fill definitions
%
/Level2PatternFill {
/Tile8x8 {/PaintType 2 /PatternType 1 /TilingType 1 /BBox [0 0 8 8] /XStep 8 /YStep 8}
	bind def
/KeepColor {currentrgbcolor [/Pattern /DeviceRGB] setcolorspace} bind def
<< Tile8x8
 /PaintProc {0.5 setlinewidth pop 0 0 M 8 8 L 0 8 M 8 0 L stroke} 
>> matrix makepattern
/Pat1 exch def
<< Tile8x8
 /PaintProc {0.5 setlinewidth pop 0 0 M 8 8 L 0 8 M 8 0 L stroke
	0 4 M 4 8 L 8 4 L 4 0 L 0 4 L stroke}
>> matrix makepattern
/Pat2 exch def
<< Tile8x8
 /PaintProc {0.5 setlinewidth pop 0 0 M 0 8 L
	8 8 L 8 0 L 0 0 L fill}
>> matrix makepattern
/Pat3 exch def
<< Tile8x8
 /PaintProc {0.5 setlinewidth pop -4 8 M 8 -4 L
	0 12 M 12 0 L stroke}
>> matrix makepattern
/Pat4 exch def
<< Tile8x8
 /PaintProc {0.5 setlinewidth pop -4 0 M 8 12 L
	0 -4 M 12 8 L stroke}
>> matrix makepattern
/Pat5 exch def
<< Tile8x8
 /PaintProc {0.5 setlinewidth pop -2 8 M 4 -4 L
	0 12 M 8 -4 L 4 12 M 10 0 L stroke}
>> matrix makepattern
/Pat6 exch def
<< Tile8x8
 /PaintProc {0.5 setlinewidth pop -2 0 M 4 12 L
	0 -4 M 8 12 L 4 -4 M 10 8 L stroke}
>> matrix makepattern
/Pat7 exch def
<< Tile8x8
 /PaintProc {0.5 setlinewidth pop 8 -2 M -4 4 L
	12 0 M -4 8 L 12 4 M 0 10 L stroke}
>> matrix makepattern
/Pat8 exch def
<< Tile8x8
 /PaintProc {0.5 setlinewidth pop 0 -2 M 12 4 L
	-4 0 M 12 8 L -4 4 M 8 10 L stroke}
>> matrix makepattern
/Pat9 exch def
/Pattern1 {PatternBgnd KeepColor Pat1 setpattern} bind def
/Pattern2 {PatternBgnd KeepColor Pat2 setpattern} bind def
/Pattern3 {PatternBgnd KeepColor Pat3 setpattern} bind def
/Pattern4 {PatternBgnd KeepColor Landscape {Pat5} {Pat4} ifelse setpattern} bind def
/Pattern5 {PatternBgnd KeepColor Landscape {Pat4} {Pat5} ifelse setpattern} bind def
/Pattern6 {PatternBgnd KeepColor Landscape {Pat9} {Pat6} ifelse setpattern} bind def
/Pattern7 {PatternBgnd KeepColor Landscape {Pat8} {Pat7} ifelse setpattern} bind def
} def
%
%
%End of PostScript Level 2 code
%
/PatternBgnd {
  TransparentPatterns {} {gsave 1 setgray fill grestore} ifelse
} def
%
% Substitute for Level 2 pattern fill codes with
% grayscale if Level 2 support is not selected.
%
/Level1PatternFill {
/Pattern1 {0.250 Density} bind def
/Pattern2 {0.500 Density} bind def
/Pattern3 {0.750 Density} bind def
/Pattern4 {0.125 Density} bind def
/Pattern5 {0.375 Density} bind def
/Pattern6 {0.625 Density} bind def
/Pattern7 {0.875 Density} bind def
} def
%
% Now test for support of Level 2 code
%
Level1 {Level1PatternFill} {Level2PatternFill} ifelse
%
/Symbol-Oblique /Symbol findfont [1 0 .167 1 0 0] makefont
dup length dict begin {1 index /FID eq {pop pop} {def} ifelse} forall
currentdict end definefont pop
Level1 SuppressPDFMark or 
{} {
/SDict 10 dict def
systemdict /pdfmark known not {
  userdict /pdfmark systemdict /cleartomark get put
} if
SDict begin [
  /Title (../schedsim/CPU_0.eps)
  /Subject (gnuplot plot)
  /Creator (gnuplot 4.6 patchlevel 4)
  /Author (kerith)
%  /Producer (gnuplot)
%  /Keywords ()
  /CreationDate (Fri Jan  1 19:08:14 2016)
  /DOCINFO pdfmark
end
} ifelse
end
%%EndProlog
%%Page: 1 1
gnudict begin
gsave
doclip
50 50 translate
0.050 0.050 scale
0 setgray
newpath
(Helvetica) findfont 140 scalefont setfont
BackgroundColor 0 lt 3 1 roll 0 lt exch 0 lt or or not {BackgroundColor C 1.000 0 0 14400.00 6480.00 BoxColFill} if
1.000 UL
LTb
LCb setrgbcolor
378 1495 M
63 0 V
13706 0 R
-63 0 V
/Helvetica findfont 230 scalefont setfont
/vshift -76 def
294 1495 M
(P3) Rshow
/Helvetica findfont 140 scalefont setfont
/vshift -46 def
1.000 UL
LTb
LCb setrgbcolor
378 3239 M
63 0 V
13706 0 R
-63 0 V
/Helvetica findfont 230 scalefont setfont
/vshift -76 def
294 3239 M
(P2) Rshow
/Helvetica findfont 140 scalefont setfont
/vshift -46 def
1.000 UL
LTb
LCb setrgbcolor
378 4984 M
63 0 V
13706 0 R
-63 0 V
/Helvetica findfont 230 scalefont setfont
/vshift -76 def
294 4984 M
(P1) Rshow
/Helvetica findfont 140 scalefont setfont
/vshift -46 def
1.000 UL
LTb
LCb setrgbcolor
1.000 UL
LTa
LCa setrgbcolor
378 448 M
0 5583 V
stroke
LTb
LCb setrgbcolor
378 448 M
0 63 V
0 5520 R
0 -63 V
/Helvetica findfont 230 scalefont setfont
/vshift -76 def
378 308 M
( 0) Cshow
/Helvetica findfont 140 scalefont setfont
/vshift -46 def
1.000 UL
LTb
LCb setrgbcolor
1.000 UL
LTa
LCa setrgbcolor
822 448 M
0 5583 V
stroke
LTb
LCb setrgbcolor
822 448 M
0 63 V
0 5520 R
0 -63 V
/Helvetica findfont 230 scalefont setfont
/vshift -76 def
822 308 M
( 1) Cshow
/Helvetica findfont 140 scalefont setfont
/vshift -46 def
1.000 UL
LTb
LCb setrgbcolor
1.000 UL
LTa
LCa setrgbcolor
1266 448 M
0 5583 V
stroke
LTb
LCb setrgbcolor
1266 448 M
0 63 V
0 5520 R
0 -63 V
/Helvetica findfont 230 scalefont setfont
/vshift -76 def
0 -5660 R
( 2) Cshow
/Helvetica findfont 140 scalefont setfont
/vshift -46 def
1.000 UL
LTb
LCb setrgbcolor
1.000 UL
LTa
LCa setrgbcolor
1710 448 M
0 5583 V
stroke
LTb
LCb setrgbcolor
1710 448 M
0 63 V
0 5520 R
0 -63 V
/Helvetica findfont 230 scalefont setfont
/vshift -76 def
0 -5660 R
( 3) Cshow
/Helvetica findfont 140 scalefont setfont
/vshift -46 def
1.000 UL
LTb
LCb setrgbcolor
1.000 UL
LTa
LCa setrgbcolor
2155 448 M
0 5583 V
stroke
LTb
LCb setrgbcolor
2155 448 M
0 63 V
0 5520 R
0 -63 V
/Helvetica findfont 230 scalefont setfont
/vshift -76 def
0 -5660 R
( 4) Cshow
/Helvetica findfont 140 scalefont setfont
/vshift -46 def
1.000 UL
LTb
LCb setrgbcolor
1.000 UL
LTa
LCa setrgbcolor
2599 448 M
0 5583 V
stroke
LTb
LCb setrgbcolor
2599 448 M
0 63 V
0 5520 R
0 -63 V
/Helvetica findfont 230 scalefont setfont
/vshift -76 def
0 -5660 R
( 5) Cshow
/Helvetica findfont 140 scalefont setfont
/vshift -46 def
1.000 UL
LTb
LCb setrgbcolor
1.000 UL
LTa
LCa setrgbcolor
3043 448 M
0 5583 V
stroke
LTb
LCb setrgbcolor
3043 448 M
0 63 V
0 5520 R
0 -63 V
/Helvetica findfont 230 scalefont setfont
/vshift -76 def
0 -5660 R
( 6) Cshow
/Helvetica findfont 140 scalefont setfont
/vshift -46 def
1.000 UL
LTb
LCb setrgbcolor
1.000 UL
LTa
LCa setrgbcolor
3487 448 M
0 5583 V
stroke
LTb
LCb setrgbcolor
3487 448 M
0 63 V
0 5520 R
0 -63 V
/Helvetica findfont 230 scalefont setfont
/vshift -76 def
0 -5660 R
( 7) Cshow
/Helvetica findfont 140 scalefont setfont
/vshift -46 def
1.000 UL
LTb
LCb setrgbcolor
1.000 UL
LTa
LCa setrgbcolor
3931 448 M
0 5583 V
stroke
LTb
LCb setrgbcolor
3931 448 M
0 63 V
0 5520 R
0 -63 V
/Helvetica findfont 230 scalefont setfont
/vshift -76 def
0 -5660 R
( 8) Cshow
/Helvetica findfont 140 scalefont setfont
/vshift -46 def
1.000 UL
LTb
LCb setrgbcolor
1.000 UL
LTa
LCa setrgbcolor
4375 448 M
0 5583 V
stroke
LTb
LCb setrgbcolor
4375 448 M
0 63 V
0 5520 R
0 -63 V
/Helvetica findfont 230 scalefont setfont
/vshift -76 def
0 -5660 R
( 9) Cshow
/Helvetica findfont 140 scalefont setfont
/vshift -46 def
1.000 UL
LTb
LCb setrgbcolor
1.000 UL
LTa
LCa setrgbcolor
4820 448 M
0 5583 V
stroke
LTb
LCb setrgbcolor
4820 448 M
0 63 V
0 5520 R
0 -63 V
/Helvetica findfont 230 scalefont setfont
/vshift -76 def
0 -5660 R
( 10) Cshow
/Helvetica findfont 140 scalefont setfont
/vshift -46 def
1.000 UL
LTb
LCb setrgbcolor
1.000 UL
LTa
LCa setrgbcolor
5264 448 M
0 5583 V
stroke
LTb
LCb setrgbcolor
5264 448 M
0 63 V
0 5520 R
0 -63 V
/Helvetica findfont 230 scalefont setfont
/vshift -76 def
0 -5660 R
( 11) Cshow
/Helvetica findfont 140 scalefont setfont
/vshift -46 def
1.000 UL
LTb
LCb setrgbcolor
1.000 UL
LTa
LCa setrgbcolor
5708 448 M
0 5583 V
stroke
LTb
LCb setrgbcolor
5708 448 M
0 63 V
0 5520 R
0 -63 V
/Helvetica findfont 230 scalefont setfont
/vshift -76 def
0 -5660 R
( 12) Cshow
/Helvetica findfont 140 scalefont setfont
/vshift -46 def
1.000 UL
LTb
LCb setrgbcolor
1.000 UL
LTa
LCa setrgbcolor
6152 448 M
0 5583 V
stroke
LTb
LCb setrgbcolor
6152 448 M
0 63 V
0 5520 R
0 -63 V
/Helvetica findfont 230 scalefont setfont
/vshift -76 def
0 -5660 R
( 13) Cshow
/Helvetica findfont 140 scalefont setfont
/vshift -46 def
1.000 UL
LTb
LCb setrgbcolor
1.000 UL
LTa
LCa setrgbcolor
6596 448 M
0 5583 V
stroke
LTb
LCb setrgbcolor
6596 448 M
0 63 V
0 5520 R
0 -63 V
/Helvetica findfont 230 scalefont setfont
/vshift -76 def
0 -5660 R
( 14) Cshow
/Helvetica findfont 140 scalefont setfont
/vshift -46 def
1.000 UL
LTb
LCb setrgbcolor
1.000 UL
LTa
LCa setrgbcolor
7040 448 M
0 5583 V
stroke
LTb
LCb setrgbcolor
7040 448 M
0 63 V
0 5520 R
0 -63 V
/Helvetica findfont 230 scalefont setfont
/vshift -76 def
0 -5660 R
( 15) Cshow
/Helvetica findfont 140 scalefont setfont
/vshift -46 def
1.000 UL
LTb
LCb setrgbcolor
1.000 UL
LTa
LCa setrgbcolor
7485 448 M
0 5583 V
stroke
LTb
LCb setrgbcolor
7485 448 M
0 63 V
0 5520 R
0 -63 V
/Helvetica findfont 230 scalefont setfont
/vshift -76 def
0 -5660 R
( 16) Cshow
/Helvetica findfont 140 scalefont setfont
/vshift -46 def
1.000 UL
LTb
LCb setrgbcolor
1.000 UL
LTa
LCa setrgbcolor
7929 448 M
0 5583 V
stroke
LTb
LCb setrgbcolor
7929 448 M
0 63 V
0 5520 R
0 -63 V
/Helvetica findfont 230 scalefont setfont
/vshift -76 def
0 -5660 R
( 17) Cshow
/Helvetica findfont 140 scalefont setfont
/vshift -46 def
1.000 UL
LTb
LCb setrgbcolor
1.000 UL
LTa
LCa setrgbcolor
8373 448 M
0 5583 V
stroke
LTb
LCb setrgbcolor
8373 448 M
0 63 V
0 5520 R
0 -63 V
/Helvetica findfont 230 scalefont setfont
/vshift -76 def
0 -5660 R
( 18) Cshow
/Helvetica findfont 140 scalefont setfont
/vshift -46 def
1.000 UL
LTb
LCb setrgbcolor
1.000 UL
LTa
LCa setrgbcolor
8817 448 M
0 5583 V
stroke
LTb
LCb setrgbcolor
8817 448 M
0 63 V
0 5520 R
0 -63 V
/Helvetica findfont 230 scalefont setfont
/vshift -76 def
0 -5660 R
( 19) Cshow
/Helvetica findfont 140 scalefont setfont
/vshift -46 def
1.000 UL
LTb
LCb setrgbcolor
1.000 UL
LTa
LCa setrgbcolor
9261 448 M
0 5583 V
stroke
LTb
LCb setrgbcolor
9261 448 M
0 63 V
0 5520 R
0 -63 V
/Helvetica findfont 230 scalefont setfont
/vshift -76 def
0 -5660 R
( 20) Cshow
/Helvetica findfont 140 scalefont setfont
/vshift -46 def
1.000 UL
LTb
LCb setrgbcolor
1.000 UL
LTa
LCa setrgbcolor
9705 448 M
0 5583 V
stroke
LTb
LCb setrgbcolor
9705 448 M
0 63 V
0 5520 R
0 -63 V
/Helvetica findfont 230 scalefont setfont
/vshift -76 def
0 -5660 R
( 21) Cshow
/Helvetica findfont 140 scalefont setfont
/vshift -46 def
1.000 UL
LTb
LCb setrgbcolor
1.000 UL
LTa
LCa setrgbcolor
10150 448 M
0 5583 V
stroke
LTb
LCb setrgbcolor
10150 448 M
0 63 V
0 5520 R
0 -63 V
/Helvetica findfont 230 scalefont setfont
/vshift -76 def
0 -5660 R
( 22) Cshow
/Helvetica findfont 140 scalefont setfont
/vshift -46 def
1.000 UL
LTb
LCb setrgbcolor
1.000 UL
LTa
LCa setrgbcolor
10594 448 M
0 5583 V
stroke
LTb
LCb setrgbcolor
10594 448 M
0 63 V
0 5520 R
0 -63 V
/Helvetica findfont 230 scalefont setfont
/vshift -76 def
0 -5660 R
( 23) Cshow
/Helvetica findfont 140 scalefont setfont
/vshift -46 def
1.000 UL
LTb
LCb setrgbcolor
1.000 UL
LTa
LCa setrgbcolor
11038 448 M
0 5583 V
stroke
LTb
LCb setrgbcolor
11038 448 M
0 63 V
0 5520 R
0 -63 V
/Helvetica findfont 230 scalefont setfont
/vshift -76 def
0 -5660 R
( 24) Cshow
/Helvetica findfont 140 scalefont setfont
/vshift -46 def
1.000 UL
LTb
LCb setrgbcolor
1.000 UL
LTa
LCa setrgbcolor
11482 448 M
0 5583 V
stroke
LTb
LCb setrgbcolor
11482 448 M
0 63 V
0 5520 R
0 -63 V
/Helvetica findfont 230 scalefont setfont
/vshift -76 def
0 -5660 R
( 25) Cshow
/Helvetica findfont 140 scalefont setfont
/vshift -46 def
1.000 UL
LTb
LCb setrgbcolor
1.000 UL
LTa
LCa setrgbcolor
11926 448 M
0 5583 V
stroke
LTb
LCb setrgbcolor
11926 448 M
0 63 V
0 5520 R
0 -63 V
/Helvetica findfont 230 scalefont setfont
/vshift -76 def
0 -5660 R
( 26) Cshow
/Helvetica findfont 140 scalefont setfont
/vshift -46 def
1.000 UL
LTb
LCb setrgbcolor
1.000 UL
LTa
LCa setrgbcolor
12370 448 M
0 5583 V
stroke
LTb
LCb setrgbcolor
12370 448 M
0 63 V
0 5520 R
0 -63 V
/Helvetica findfont 230 scalefont setfont
/vshift -76 def
0 -5660 R
( 27) Cshow
/Helvetica findfont 140 scalefont setfont
/vshift -46 def
1.000 UL
LTb
LCb setrgbcolor
1.000 UL
LTa
LCa setrgbcolor
12815 448 M
0 5583 V
stroke
LTb
LCb setrgbcolor
12815 448 M
0 63 V
0 5520 R
0 -63 V
/Helvetica findfont 230 scalefont setfont
/vshift -76 def
0 -5660 R
( 28) Cshow
/Helvetica findfont 140 scalefont setfont
/vshift -46 def
1.000 UL
LTb
LCb setrgbcolor
1.000 UL
LTa
LCa setrgbcolor
13259 448 M
0 5583 V
stroke
LTb
LCb setrgbcolor
13259 448 M
0 63 V
0 5520 R
0 -63 V
/Helvetica findfont 230 scalefont setfont
/vshift -76 def
0 -5660 R
( 29) Cshow
/Helvetica findfont 140 scalefont setfont
/vshift -46 def
1.000 UL
LTb
LCb setrgbcolor
1.000 UL
LTa
LCa setrgbcolor
13703 448 M
0 5583 V
stroke
LTb
LCb setrgbcolor
13703 448 M
0 63 V
0 5520 R
0 -63 V
/Helvetica findfont 230 scalefont setfont
/vshift -76 def
0 -5660 R
( 30) Cshow
/Helvetica findfont 140 scalefont setfont
/vshift -46 def
1.000 UL
LTb
LCb setrgbcolor
1.000 UL
LTa
LCa setrgbcolor
14147 448 M
0 5583 V
stroke
LTb
LCb setrgbcolor
14147 448 M
0 63 V
0 5520 R
0 -63 V
/Helvetica findfont 230 scalefont setfont
/vshift -76 def
0 -5660 R
( 31) Cshow
/Helvetica findfont 140 scalefont setfont
/vshift -46 def
1.000 UL
LTb
LCb setrgbcolor
1.000 UL
LTb
LCb setrgbcolor
378 6031 N
378 448 L
13769 0 V
0 5583 V
378 6031 L
Z stroke
LCb setrgbcolor
112 3239 M
currentpoint gsave translate -270 rotate 0 0 M
() Cshow
grestore
LTb
LCb setrgbcolor
/Helvetica findfont 230 scalefont setfont
/vshift -76 def
7262 98 M
(time) Cshow
/Helvetica findfont 140 scalefont setfont
/vshift -46 def
LTb
7262 5961 M
() Cshow
1.000 UL
LTb
0.00 0.00 1.00 C 0.800 378 4286 444 1396 BoxColFill
LCb setrgbcolor
378 4286 M
0 1396 V
444 0 V
0 -1396 V
-444 0 V
stroke
LTb
0.80 0.80 0.80 C 0.800 822 4286 2221 1396 BoxColFill
LCb setrgbcolor
822 4286 M
0 1396 V
2221 0 V
0 -1396 V
-2221 0 V
stroke
LTb
0.00 0.00 1.00 C 0.800 3043 4286 444 1396 BoxColFill
LCb setrgbcolor
3043 4286 M
0 1396 V
444 0 V
0 -1396 V
-444 0 V
stroke
LTb
0.80 0.80 0.80 C 0.800 3487 4286 1333 1396 BoxColFill
LCb setrgbcolor
3487 4286 M
0 1396 V
1333 0 V
0 -1396 V
-1333 0 V
stroke
LTb
0.00 0.00 1.00 C 0.800 4820 4286 444 1396 BoxColFill
LCb setrgbcolor
4820 4286 M
0 1396 V
444 0 V
0 -1396 V
-444 0 V
stroke
LTb
1.00 1.00 0.00 C 0.800 5264 4286 444 1396 BoxColFill
LCb setrgbcolor
5264 4286 M
0 1396 V
444 0 V
0 -1396 V
-444 0 V
stroke
LTb
0.00 0.00 1.00 C 0.800 5708 4286 2221 1396 BoxColFill
LCb setrgbcolor
5708 4286 M
0 1396 V
2221 0 V
0 -1396 V
-2221 0 V
stroke
LTb
0.80 0.80 0.80 C 0.800 822 2542 4442 1395 BoxColFill
LCb setrgbcolor
822 2542 M
0 1395 V
4442 0 V
0 -1395 V
-4442 0 V
stroke
LTb
0.00 0.00 1.00 C 0.800 5264 2542 444 1395 BoxColFill
LCb setrgbcolor
5264 2542 M
0 1395 V
444 0 V
0 -1395 V
-444 0 V
stroke
LTb
0.80 0.80 0.80 C 0.800 5708 2542 2221 1395 BoxColFill
LCb setrgbcolor
5708 2542 M
0 1395 V
2221 0 V
0 -1395 V
-2221 0 V
stroke
LTb
0.00 0.00 1.00 C 0.800 7929 2542 444 1395 BoxColFill
LCb setrgbcolor
7929 2542 M
0 1395 V
444 0 V
0 -1395 V
-444 0 V
stroke
LTb
1.00 1.00 0.00 C 0.800 8373 2542 1777 1395 BoxColFill
LCb setrgbcolor
8373 2542 M
0 1395 V
1777 0 V
0 -1395 V
-1777 0 V
stroke
LTb
0.00 0.00 1.00 C 0.800 10150 2542 3996 1395 BoxColFill
LCb setrgbcolor
10150 2542 M
0 1395 V
3996 0 V
0 -1395 V
-3996 0 V
stroke
LTb
0.00 0.00 1.00 C 0.800 822 797 2221 1396 BoxColFill
LCb setrgbcolor
822 797 M
0 1396 V
2221 0 V
0 -1396 V
822 797 L
stroke
LTb
1.00 1.00 0.00 C 0.800 3043 797 444 1396 BoxColFill
LCb setrgbcolor
3043 797 M
0 1396 V
444 0 V
0 -1396 V
-444 0 V
stroke
LTb
0.00 0.00 1.00 C 0.800 3487 797 1333 1396 BoxColFill
LCb setrgbcolor
3487 797 M
0 1396 V
1333 0 V
0 -1396 V
-1333 0 V
1.000 UP
stroke
LTb
LCb setrgbcolor
% Begin plot #1
6.000 UL
LT0
0.00 0.00 1.00 C LCb setrgbcolor
/Helvetica findfont 250 scalefont setfont
/vshift -83 def
6118 6347 M
(running) Rshow
/Helvetica findfont 140 scalefont setfont
/vshift -46 def
LT0
0.00 0.00 1.00 C 6202 6347 M
399 0 V
% End plot #1
% Begin plot #2
stroke
LT1
0.80 0.80 0.80 C LCb setrgbcolor
/Helvetica findfont 250 scalefont setfont
/vshift -83 def
7273 6347 M
(ready) Rshow
/Helvetica findfont 140 scalefont setfont
/vshift -46 def
LT1
0.80 0.80 0.80 C 7357 6347 M
399 0 V
% End plot #2
% Begin plot #3
stroke
LT2
1.00 1.00 0.00 C LCb setrgbcolor
/Helvetica findfont 250 scalefont setfont
/vshift -83 def
8428 6347 M
(I/O) Rshow
/Helvetica findfont 140 scalefont setfont
/vshift -46 def
LT2
1.00 1.00 0.00 C 8512 6347 M
399 0 V
% End plot #3
stroke
1.000 UL
LTb
LCb setrgbcolor
378 6031 N
378 448 L
13769 0 V
0 5583 V
378 6031 L
Z stroke
1.000 UP
1.000 UL
LTb
LCb setrgbcolor
stroke
grestore
end
showpage
%%Trailer
%%DocumentFonts: Helvetica
